{
  "project_info": {
    "project_number": "941931263542",
    "firebase_url": "https://battery-monitoring-eda7c.firebaseio.com",
    "project_id": "battery-monitoring-eda7c",
    "storage_bucket": "battery-monitoring-eda7c.appspot.com"
  },
  "client": [
    {
      "client_info": {
        "mobilesdk_app_id": "1:941931263542:android:9a892ad7e1646350130a97",
        "android_client_info": {
          "package_name": "com.estupidyante.battery.debug"
        }
      },
      "oauth_client": [
        {
          "client_id": "941931263542-8aufpsadg7huskc7gqqj4or0495uad5f.apps.googleusercontent.com",
          "client_type": 3
        }
      ],
      "api_key": [
        {
          "current_key": "AIzaSyAsaUIM2nEP66y4dGeNb-iTM9992VZDxKE"
        }
      ],
      "services": {
        "appinvite_service": {
          "other_platform_oauth_client": [
            {
              "client_id": "941931263542-8aufpsadg7huskc7gqqj4or0495uad5f.apps.googleusercontent.com",
              "client_type": 3
            }
          ]
        }
      }
    }
  ],
  "configuration_version": "1"
}